Инструменты для анализа текста в R
…
corpus_tbl <- corpus_tbl |>  
  filter(!str_detect(word, "[[:punct:]<>]")) 

Узнаем, сколько слов в каждом тексте:

Код

total <- corpus_tbl |>  
  group_by(text) |> 
  summarise(total = n()) |> 
  arrange(-total)

total

# A tibble: 51 × 2
   text     total
   <fct>    <int>
 1 gorgiy   28588
 2 timey    26929
 3 teetet   25213
 4 fedon    23178
 5 kratil   20218
 6 fileb    18856
 7 protagor 18337
 8 fedr     18196
 9 pir      18116
10 politik  18091
# ℹ 41 more rows
…
Соединим две таблицы.

Код

corpus_tf <- corpus_counts |> 
  left_join(total)

Joining with `by = join_by(text)`

Код

corpus_tf

# A tibble: 97,042 × 4
   text     word      n total
   <fct>    <chr> <int> <int>
 1 gorgiy   и      1520 28588
 2 timey    и      1420 26929
 3 fedon    и      1241 23178
 4 teetet   и      1197 25213
 5 pir      и       973 18116
 6 protagor и       953 18337
 7 kratil   и       913 20218
 8 fileb    и       872 18856
 9 fedr     и       850 18196
10 politik  и       839 18091
# ℹ 97,032 more rows

Теперь добавим новый столбец:

Код

corpus_tf <- corpus_tf |> 
  mutate(tf = n / total) |> 
  arrange(-tf)

corpus_tf

# A tibble: 97,042 × 5
   text             word      n total     tf
   <fct>            <chr> <int> <int>  <dbl>
 1 gosudarstvo_iii  и       593 10631 0.0558
 2 kritiy           и       284  5113 0.0555
 3 ion              и       209  3814 0.0548
 4 gosudarstvo_ii   и       496  9203 0.0539
 5 pir              и       973 18116 0.0537
 6 fedon            и      1241 23178 0.0535
 7 meneksen         и       288  5388 0.0535
 8 gorgiy           и      1520 28588 0.0532
 9 timey            и      1420 26929 0.0527
10 gosudarstvo_viii и       467  8896 0.0525
# ℹ 97,032 more rows
…
